Introdução ao R
…
### arrange 

Ordenar as linhas da base de dados conforme uma ou mais variáveis.

```r
# Ordenando os personagens pela altura em cm
dados %>% arrange(height) # default ordem crescente
```

```
## # A tibble: 87 x 13
##    name  height  mass hair_color skin_color eye_color birth_year gender
##    <chr>  <int> <dbl> <chr>      <chr>      <chr>          <dbl> <chr> 
##  1 Yoda      66    17 white      green      brown            896 male  
##  2 Ratt…     79    15 none       grey, blue unknown           NA male  
##  3 Wick…     88    20 brown      brown      brown              8 male  
##  4 Dud …     94    45 none       blue, grey yellow            NA male  
##  5 R2-D2     96    32 <NA>       white, bl… red               33 <NA>  
##  6 R4-P…     96    NA none       silver, r… red, blue         NA female
##  7 R5-D4     97    32 <NA>       white, red red               NA <NA>  
##  8 Sebu…    112    40 none       grey, red  orange            NA male  
##  9 Gasg…    122    NA none       white, bl… black             NA male  
## 10 Watto    137    NA black      blue, grey yellow            NA male  
## # … with 77 more rows, and 5 more variables: homeworld <chr>, species <chr>,
## #   films <list>, vehicles <list>, starships <list>
```
…
---

### select

Seleciona as colunas na base de dados.

```r
dados %>% select(name,species,homeworld)
```

```
## # A tibble: 87 x 3
##    name               species homeworld
##    <chr>              <chr>   <chr>    
##  1 Luke Skywalker     Human   Tatooine 
##  2 C-3PO              Droid   Tatooine 
##  3 R2-D2              Droid   Naboo    
##  4 Darth Vader        Human   Tatooine 
##  5 Leia Organa        Human   Alderaan 
##  6 Owen Lars          Human   Tatooine 
##  7 Beru Whitesun lars Human   Tatooine 
##  8 R5-D4              Droid   Tatooine 
##  9 Biggs Darklighter  Human   Tatooine 
## 10 Obi-Wan Kenobi     Human   Stewjon  
## # … with 77 more rows
```
…
---

### mutate

Cria ou modifica uma coluna na base de dados.

```r
# criando uma nova variável altura em metros
dados %>% select(name,height) %>%
                           mutate(heigth_m=height/100)
```

```
## # A tibble: 87 x 3
##    name               height heigth_m
##    <chr>               <int>    <dbl>
##  1 Luke Skywalker        172     1.72
##  2 C-3PO                 167     1.67
##  3 R2-D2                  96     0.96
##  4 Darth Vader           202     2.02
##  5 Leia Organa           150     1.5 
##  6 Owen Lars             178     1.78
##  7 Beru Whitesun lars    165     1.65
##  8 R5-D4                  97     0.97
##  9 Biggs Darklighter     183     1.83
## 10 Obi-Wan Kenobi        182     1.82
## # … with 77 more rows
```
…
### group_by

Agrupa as colunas de uma base de dados. 

```r
dados %>% group_by(species) %>%
             summarise(Total=n()) %>% 
                    arrange(desc(Total)) %>% drop_na()
```

```
## # A tibble: 37 x 2
##    species  Total
##    <chr>    <int>
##  1 Human       35
##  2 Droid        5
##  3 Gungan       3
##  4 Kaminoan     2
##  5 Mirialan     2
##  6 Twi'lek      2
##  7 Wookiee      2
##  8 Zabrak       2
##  9 Aleena       1
## 10 Besalisk     1
## # … with 27 more rows
```
…
